<?xml version="1.0" encoding="UTF-8"?>
<svg width="1622px" height="1263px" viewBox="0 0 1622 1263" version="1.1" xmlns="http://www.w3.org/2000/svg" xmlns:xlink="http://www.w3.org/1999/xlink">
    <!-- Generator: Sketch 61 (89581) - https://sketch.com -->
    <title>Artboard Copy 4</title>
    <desc>Created with Sketch.</desc>
    <g id="Artboard-Copy-4" stroke="none" stroke-width="1" fill="none" fill-rule="evenodd">
        <g id="undraw_city_girl_ccpd" transform="translate(266.000000, 207.000000)" fill-rule="nonzero">
            <path d="M855.709053,66.594122 C759.999668,-12.0780433 601.473623,105.747562 486.731712,100.91099 C363.642254,95.7225552 207.975326,-58.0910347 103.766204,24.1385592 C-2.67342321,108.129878 -8.97587801,268.236491 6.03799947,463.890386 C11.3438591,533.096115 26.1123865,589.870421 47.6585513,636.34716 C134.927462,824.75964 493.362521,817.504617 513.269149,817.477025 C526.165822,817.463298 539.06251,817.770751 551.959213,818.399386 C597.132363,820.610456 642.067489,826.668813 686.335254,836.516573 C749.450222,850.544945 829.799565,857.593477 901.589894,831.023642 C913.787278,826.53027 925.639403,821.034596 937.039596,814.586082 C976.491369,792.22866 1020.65517,770.862637 1046.47437,717.832875 C1065.87762,678.033134 1080.01347,628.128446 1086.81695,565.971283 C1111.57743,339.603685 987.851884,175.214319 855.709053,66.594122 Z" id="Path" fill="#F6F5F9"></path>
            <ellipse id="Oval" fill="#3F3D56" cx="552" cy="704" rx="437" ry="41"></ellipse>
            <ellipse id="Oval" fill="#000000" opacity="0.1" cx="530.5" cy="703" rx="406.5" ry="19"></ellipse>
            <polygon id="Path" fill="#575A89" points="754.89534 154 754.89534 200.028134 695 200.028134 695 702 820 702 820 219.135157 820 200.028134 820 154"></polygon>
            <polygon id="Path" fill="#575A89" points="425.183084 463.097376 425.183084 384 348.685972 384 348.685972 463.097376 320 463.097376 320 703 453 703 453 463.097376"></polygon>
            <rect id="Rectangle" fill="#3F3D56" x="335" y="592" width="103" height="112"></rect>
            <rect id="Rectangle" fill="#000000" opacity="0.1" x="335" y="592" width="17" height="112"></rect>
            <polygon id="Path" fill="#3F3D56" points="651.580709 129 651.580709 155.925934 498.290025 155.925934 498.290025 129 453 129 453 704 696 704 696 129"></polygon>
            <rect id="Rectangle" fill="#000000" opacity="0.1" x="651" y="129" width="34" height="26"></rect>
            <rect id="Rectangle" fill="#000000" opacity="0.1" x="452" y="129" width="34" height="575"></rect>
            <polygon id="Path" fill="#3F3D56" points="280.185201 293.686901 280.185201 272 257.681287 272 257.681287 293.686901 217 293.686901 217 704 320 704 320 293.686901"></polygon>
            <rect id="Rectangle" fill="#000000" opacity="0.1" x="257" y="272" width="12" height="21"></rect>
            <rect id="Rectangle" fill="#000000" opacity="0.1" x="216" y="293" width="12" height="411"></rect>
            <rect id="Rectangle" fill="#000000" opacity="0.1" x="651" y="351" width="34" height="353"></rect>
            <rect id="Rectangle" fill="#000000" opacity="0.1" x="288" y="293" width="32" height="75"></rect>
            <rect id="Rectangle" fill="#FF6584" x="490" y="202" width="49" height="21"></rect>
            <rect id="Rectangle" fill="#FF6584" x="593" y="417" width="49" height="21"></rect>
            <rect id="Rectangle" fill="#FF6584" x="490" y="567" width="49" height="21"></rect>
            <rect id="Rectangle" fill="#FF6584" x="244" y="386" width="49" height="21"></rect>
            <rect id="Rectangle" fill="#FF6584" x="362" y="604" width="49" height="21"></rect>
            <rect id="Rectangle" fill="#000000" opacity="0.1" x="345" y="481" width="83" height="34"></rect>
            <rect id="Rectangle" fill="#000000" opacity="0.1" x="710" y="240" width="83" height="34"></rect>
            <rect id="Rectangle" fill="#000000" opacity="0.1" x="710" y="314" width="83" height="34"></rect>
            <rect id="Rectangle" fill="#000000" opacity="0.1" x="710" y="388" width="83" height="34"></rect>
            <rect id="Rectangle" fill="#000000" opacity="0.1" x="710" y="462" width="83" height="34"></rect>
            <rect id="Rectangle" fill="#000000" opacity="0.1" x="710" y="535" width="83" height="34"></rect>
            <rect id="Rectangle" fill="#000000" opacity="0.1" x="710" y="609" width="83" height="34"></rect>
            <polygon id="Path" fill="#3F3D56" points="849.226702 397.607948 849.226702 303 788.638606 303 788.638606 397.607948 767 397.607948 767 704 870 704 870 397.607948"></polygon>
            <rect id="Rectangle" fill="#000000" opacity="0.1" x="788" y="302" width="18" height="95"></rect>
            <rect id="Rectangle" fill="#000000" opacity="0.1" x="767" y="397" width="18" height="307"></rect>
            <rect id="Rectangle" fill="#000000" opacity="0.1" x="819" y="551" width="51" height="30"></rect>
            <rect id="Rectangle" fill="#FF6584" x="820" y="505" width="49" height="21"></rect>
            <path d="M1022,527.310375 C1022,604.906374 975.885332,632 919,632 C862.11468,632 816,604.906374 816,527.310375 C816,449.714376 919,351 919,351 C919,351 1022,449.714376 1022,527.310375 Z" id="Path" fill="#57F07F"></path>
            <polygon id="Path" fill="#3F3D56" points="915.22834 619.540336 916.278563 554.741795 960 474.576892 916.442956 544.576574 916.916029 515.440463 947.048435 457.442046 917.040211 507.731205 917.040211 507.731205 917.890561 455.328638 950.156527 409.153692 918.023021 447.088361 918.554046 351 915.218879 478.202756 915.493261 472.955387 882.686809 422.628299 914.966967 483.029339 911.909731 541.554033 911.818664 540.000091 874 487.038058 911.705127 545.488078 911.321937 552.807369 911.253342 552.916417 911.285274 553.517369 903.53042 702 913.891908 702 915.134908 625.305685 952.747786 567.000274"></polygon>
            <path d="M268,528.310383 C268,605.906385 221.885332,633 165,633 C108.114657,633 62,605.906385 62,528.310383 C62,450.71438 165,352 165,352 C165,352 268,450.714321 268,528.310383 Z" id="Path" fill="#57F07F"></path>
            <polygon id="Path" fill="#3F3D56" points="161.227773 620.541243 162.277982 555.742483 206 475.577309 162.443555 545.577228 162.915439 516.441018 193.04743 458.442406 163.040802 508.730549 163.040802 508.731734 163.889957 456.328991 196.156662 410.153888 164.023598 448.088686 164.554616 352 161.218312 479.203185 161.492691 473.955799 128.686689 423.628541 160.966404 484.0286 157.910392 542.553491 157.819327 541.000729 120 488.038518 157.704608 546.488734 157.322607 553.806865 157.254012 553.917099 157.284761 554.518053 149.530014 703 159.89136 703 161.134343 626.306611 198.746703 568.001003"></polygon>
        </g>
    </g>
</svg>