<?xml version="1.0" encoding="UTF-8"?>
<svg width="1278px" height="918px" viewBox="0 0 1278 918" version="1.1" xmlns="http://www.w3.org/2000/svg" xmlns:xlink="http://www.w3.org/1999/xlink">
    <!-- Generator: Sketch 60.1 (88133) - https://sketch.com -->
    <title>Artboard</title>
    <desc>Created with Sketch.</desc>
    <g id="Artboard" stroke="none" stroke-width="1" fill="none" fill-rule="evenodd">
        <path d="M-79.6180913,619.306434 C-5.60782924,391.262981 341.728304,374.536901 517.28614,154.859468 C692.843975,-64.8179646 1104.68215,-37.9862975 1129.06633,154.859468 C1153.45051,347.705233 959.299855,517.765071 1230.99842,761.829836 C1502.69698,1005.8946 517.91017,897.464432 284.514888,872.083789 C51.1196073,846.703146 -153.628353,847.349887 -79.6180913,619.306434 Z" id="Path-2" fill="#F6F5F9"></path>
        <g id="undraw_next_option_2ajo" transform="translate(187.000000, 150.000000)" fill-rule="nonzero">
            <polygon id="Rectangle" fill="#D0CDE1" transform="translate(306.656335, 359.478736) rotate(-22.244650) translate(-306.656335, -359.478736) " points="264.133481 13.7597826 349.158351 13.7623449 349.17919 705.19769 264.15432 705.195127"></polygon>
            <polygon id="Rectangle" fill="#D0CDE1" transform="translate(164.698322, 363.469886) rotate(-22.244650) translate(-164.698322, -363.469886) " points="122.175908 32.3734143 207.200779 32.3759767 207.220736 694.566357 122.195866 694.563794"></polygon>
            <polygon id="Rectangle" fill="#D0CDE1" transform="translate(459.355944, 339.525381) rotate(-22.244650) translate(-459.355944, -339.525381) " points="416.83309 -6.19357291 501.85796 -6.19101056 501.878799 685.244334 416.853928 685.241772"></polygon>
            <ellipse id="Oval" fill="#3F3D56" cx="422.66763" cy="670.5" rx="251.5" ry="42.5"></ellipse>
            <path d="M836.16763,542 L834.275515,541.421015 L128.16763,325.565293 L130.110067,324.593406 L614.838326,82 L615.219794,82.7925926 L836.16763,542 Z M132.826415,325.1745 L832.889209,539.18222 L614.041584,84.3396447 L132.826415,325.1745 Z" id="Shape" fill="#3F3D56"></path>
            <rect id="Rectangle" fill="#57F07F" x="739.16763" y="446" width="176" height="168" rx="30"></rect>
            <rect id="Rectangle" fill="#57F07F" x="550.16763" y="0" width="176" height="168" rx="30"></rect>
            <rect id="Rectangle" fill="#57F07F" x="52.1676301" y="241" width="176" height="168" rx="30"></rect>
            <path d="M389.654812,216 L384.420854,216 L362.176531,296.434783 C362.176531,296.434783 361.740368,349.913043 366.974326,376 C366.974326,376 375.69759,364.695652 381.803875,364.695652 C387.910159,364.695652 393.58028,307.73913 393.58028,307.73913 C393.58028,307.73913 417.569255,226.434783 389.654812,216 Z" id="Path" fill="#3F3D56"></path>
            <path d="M502.619239,368 C502.619239,368 488.701657,407.237301 501.74939,409.853122 C514.797122,412.468942 521.755913,379.33522 518.276518,374.97552 C514.797122,370.61582 502.619239,368 502.619239,368 Z" id="Path" fill="#FBBEBE"></path>
            <path d="M364.16763,361.305168 C364.16763,361.305168 368.08507,401.919851 381.031338,398.832499 C393.977605,395.745147 386.318368,363.436091 381.321376,361.007303 C376.324384,358.578515 364.16763,361.305168 364.16763,361.305168 Z" id="Path" fill="#FBBEBE"></path>
            <path d="M397.517861,602.875 C397.517861,602.875 403.694845,632.625 393.10573,640.5 C382.516616,648.375 396.635435,665 396.635435,665 L430.16763,630 C430.16763,630 416.048811,608.125 416.931237,595 L397.517861,602.875 Z" id="Path" fill="#FBBEBE"></path>
            <polygon id="Path" fill="#FBBEBE" points="451.36763 629 448.00763 653.065217 447.16763 670 465.64763 668.217391 468.16763 633.456522"></polygon>
            <path d="M376.989146,365 C376.989146,365 366.355088,368.92813 367.217372,380.197177 C368.079656,391.466225 370.666509,427.007066 370.666509,427.007066 C370.666509,427.007066 362.905952,503.289848 370.666509,529.295342 C378.427065,555.300836 393.085895,607.311824 393.085895,607.311824 C393.085895,607.311824 415.505281,611.646073 420.678986,595.175927 C420.678986,595.175927 419.816702,538.83069 410.331577,526.694793 C400.846452,514.558896 407.744725,511.091497 408.607009,509.357797 C409.469293,507.624097 412.056145,505.023548 412.056145,502.422999 C412.056145,499.822449 412.918429,490.287101 412.918429,486.819702 C412.918429,483.352303 412.056145,484.219153 413.780713,479.018054 C415.505281,473.816955 417.22985,472.083256 417.22985,471.216406 C417.22985,470.349556 431.888679,424.406517 431.888679,424.406517 L450.858929,531.029042 C450.858929,531.029042 446.547509,635.917867 448.272077,635.917867 C449.996645,635.917867 468.966895,642.852666 475.865168,635.917867 C475.865168,635.917867 493.11085,545.765488 489.661713,540.56439 C486.212577,535.363291 485.350293,534.496441 486.212577,529.295342 C487.074861,524.094244 488.799429,521.493694 487.074861,518.893145 C485.350293,516.292595 482.76344,507.624097 485.350293,505.023548 C487.937145,502.422999 488.799429,490.287101 488.799429,490.287101 C488.799429,490.287101 503.458259,405.335821 493.973134,393.199924 C484.488009,381.064027 376.989146,365 376.989146,365 Z" id="Path" fill="#2F2E41"></path>
            <path d="M405.736778,640.809386 C405.736778,640.809386 395.303343,627.862605 391.825531,633.904436 C388.347719,639.946267 383.131002,649.440574 383.131002,649.440574 C383.131002,649.440574 344.00562,683.102205 365.741943,683.965324 C387.478266,684.828443 401.389513,669.292305 401.389513,669.292305 C401.389513,669.292305 404.867325,652.02993 415.30076,652.02993 L417.039666,656.345524 L436.16763,644.261861 C436.16763,644.261861 433.473856,621.344893 425.691487,622.014388 L405.736778,640.809386 Z" id="Path" fill="#2F2E41"></path>
            <path d="M442.342888,666.855347 C442.342888,666.855347 465.260414,658.180816 467.904743,666.855347 C470.549073,675.529879 470.549073,679.867145 470.549073,679.867145 C470.549073,679.867145 489.940826,711.095458 470.549073,712.830365 C451.157321,714.565271 442.342888,702.420927 442.342888,702.420927 C442.342888,702.420927 444.987218,687.674223 442.342888,685.939317 C439.698558,684.204411 442.342888,666.855347 442.342888,666.855347 Z" id="Path" fill="#2F2E41"></path>
            <circle id="Oval" fill="#FBBEBE" cx="457.16763" cy="158" r="30"></circle>
            <path d="M436.168983,164 L430.16763,197.647059 L472.177102,208 C472.177102,208 462.317736,183.411765 473.034438,172.627451 C475.745575,169.899209 436.168983,164 436.168983,164 Z" id="Path" fill="#FBBEBE"></path>
            <path d="M432.115179,184 C430.041845,184.393301 428.375439,185.948033 427.827684,188.000168 C427.07663,190.490518 425.912792,192.834983 424.385413,194.93437 C424.385413,194.93437 383.938733,214.003426 383.938733,216.603752 C383.938733,219.204078 400.289518,274.677696 400.289518,274.677696 C400.289518,274.677696 401.150086,309.348707 394.265545,317.149685 C387.381003,324.950662 380.496462,353.554247 382.217597,356.154573 C383.938733,358.754898 370.16965,364.822325 375.333056,369.156202 C380.496462,373.490078 452.784147,415.095292 495.81253,396.026236 C495.81253,396.026236 496.673098,388.225258 495.81253,383.024606 C494.951963,377.823955 500.975936,360.488449 499.254801,354.421022 C497.533666,348.353595 499.254801,285.945775 499.254801,285.945775 L508.123596,212.047435 C508.473472,209.14999 506.707191,206.417838 503.934826,205.568082 C494.016216,202.53182 471.01467,190.100754 467.844081,192.767432 C463.738726,196.220292 438.123808,193.86828 432.115179,184 Z" id="Path" fill="#3F3D56"></path>
            <path d="M499.6651,204.45294 L499.720877,204.430919 C502.294484,203.412131 505.240575,204.244785 506.877335,206.453551 C512.298018,213.773115 523.705995,230.22433 525.033986,240.707634 C526.783565,254.518947 532.0323,291.636849 531.157511,296.816091 C530.282721,301.995333 529.407932,302.85854 531.157511,305.448161 C532.907089,308.037782 532.0323,307.174575 531.157511,309.764196 C530.282721,312.353817 519.785251,384 519.785251,384 C519.785251,384 512.786938,368.462274 499.6651,373.641516 C499.6651,373.641516 501.414679,359.830203 499.6651,355.514168 C497.915522,351.198133 496.165943,348.608512 497.915522,345.155684 C499.6651,341.702856 497.915522,308.037782 497.040733,304.584954 C496.165943,301.132126 497.040733,283.004778 497.040733,283.004778 L489.16763,247.613291 L499.6651,204.45294 Z" id="Path" fill="#3F3D56"></path>
            <path d="M452.640069,162.040515 L453.669219,154.862893 C453.909096,153.189932 454.88772,150.990241 456.514651,151.445214 C457.898406,151.832174 460.913202,153.017267 461.41794,152.659571 C463.308182,151.319885 466.168675,153.662384 468.156409,152.472318 C468.989201,151.973711 469.532486,150.90549 470.500386,150.834194 C471.149799,150.875686 471.76171,151.15303 472.221126,151.614107 C473.511447,152.736722 475.031827,153.563042 476.675443,154.035008 C478.354685,154.492456 480.149816,154.002924 481.364771,152.756228 C481.575463,152.430111 481.859426,152.157775 482.194002,151.960952 C482.586702,151.847718 483.005743,151.867001 483.386395,152.015821 L488.465115,153.399246 C489.976634,147.916279 489.023221,142.04646 485.854145,137.324454 C483.793798,134.526483 481.296027,132.079152 478.456982,130.076669 C475.311768,127.68281 472.065912,125.431218 468.719413,123.32189 C465.056693,121.007009 461.172369,118.823361 456.889113,118.172644 C452.606222,117.52198 447.810706,118.686092 445.116765,122.080134 C443.849602,121.162621 442.897173,119.875386 442.390092,118.394962 C441.778583,118.95156 441.445267,119.750801 441.480021,120.577169 C441.514775,121.403537 441.91402,122.171941 442.570102,122.67518 L438.27491,119.931028 C437.067422,121.199418 439.426554,123.49945 438.397769,124.91678 C438.086617,125.267317 437.687343,125.528128 437.241407,125.672132 C434.909184,126.581569 432.77167,127.927559 430.943369,129.638001 C428.474679,132.114669 427.133981,135.476468 425.98326,138.779287 C423.423774,146.125611 421.563538,154.550442 425.200072,161.427126 C425.612341,162.206717 431.054293,175.074336 431.779303,175.576104 C434.230155,177.272276 432.634755,173.167353 434.390917,175.576104 C435.768056,177.464981 435.510273,170.235564 437.55696,171.822433 C439.19624,172.995916 441.372421,173.093826 443.110366,172.072289 C443.958897,171.483531 443.685487,168.214261 443.227645,165.212022 C443.049828,164.05084 443.459863,162.877101 444.321951,162.07954 C445.184038,161.28198 446.385672,160.964681 447.528878,161.232732 C450.077936,161.832594 452.596376,162.34524 452.640069,162.040515 Z" id="Path" fill="#2F2E41"></path>
            <path d="M493.858629,231 L502.16763,317 C502.16763,317 484.610373,244.871285 493.858629,231 Z" id="Path" fill="#000000" opacity="0.1"></path>
            <polygon id="Path" fill="#FFFFFF" points="621.16763 64 667.16763 83.9333333 621.16763 103"></polygon>
            <rect id="Rectangle" fill="#FFFFFF" x="99.1676301" y="301" width="82" height="8"></rect>
            <rect id="Rectangle" fill="#FFFFFF" x="99.1676301" y="322" width="82" height="8"></rect>
            <rect id="Rectangle" fill="#FFFFFF" x="99.1676301" y="343" width="82" height="8"></rect>
            <circle id="Oval" fill="#FFFFFF" cx="795.66763" cy="531.5" r="9.5"></circle>
            <circle id="Oval" fill="#FFFFFF" cx="825.66763" cy="531.5" r="9.5"></circle>
            <circle id="Oval" fill="#FFFFFF" cx="854.66763" cy="531.5" r="9.5"></circle>
        </g>
    </g>
</svg>